BEHAVIOURAL  MODEL/SEQUENTIAL CRTS/FLIP-FLOP/FLIP-FLOPS USING LATCHES/SR FF/transcript
# //  Questa Sim-64
# //  Version 10.7c win64 Aug 18 2018
# //
# //  Copyright 1991-2018 Mentor Graphics Corporation
# //  All Rights Reserved.
# //
# //  QuestaSim and its associated documentation contain trade
# //  secrets and commercial or financial information that are the property of
# //  Mentor Graphics Corporation and are privileged, confidential,
# //  and exempt from disclosure under the Freedom of Information Act,
# //  5 U.S.C. Section 552. Furthermore, this information
# //  is prohibited from disclosure under the Trade Secrets Act,
# //  18 U.S.C. Section 1905.
# //
# do run.do
# QuestaSim-64 vlog 10.7c Compiler 2018.08 Aug 18 2018
# Start time: 16:36:32 on Sep 10,2025
# vlog -reportprogress 300 srff.v "+acc" 
# -- Compiling module srl
# -- Compiling module srff
# -- Compiling module srff_tb
# 
# Top level modules:
# 	srff_tb
# End time: 16:36:32 on Sep 10,2025, Elapsed time: 0:00:00
# Errors: 0, Warnings: 0
# vsim srff_tb 
# Start time: 16:36:32 on Sep 10,2025
# ** Note: (vsim-3812) Design is being optimized...
# Loading work.srff_tb(fast)
# Loading work.srff(fast)
# Loading work.srl(fast)
# rst=0 clk=0 S=x R=x Q=0 Qbar=1 Time=0
# rst=0 clk=1 S=x R=x Q=0 Qbar=1 Time=5
# rst=1 clk=0 S=x R=x Q=0 Qbar=1 Time=10
# rst=1 clk=1 S=x R=x Q=0 Qbar=1 Time=15
# rst=1 clk=1 S=0 R=1 Q=0 Qbar=1 Time=17
# rst=1 clk=0 S=0 R=1 Q=0 Qbar=1 Time=20
# rst=1 clk=0 S=1 R=1 Q=0 Qbar=1 Time=24
# rst=1 clk=1 S=1 R=1 Q=0 Qbar=1 Time=25
# rst=1 clk=0 S=1 R=1 Q=x Qbar=x Time=30
# rst=1 clk=1 S=1 R=1 Q=x Qbar=x Time=35
# rst=1 clk=1 S=1 R=0 Q=x Qbar=x Time=38
# rst=1 clk=0 S=1 R=0 Q=1 Qbar=0 Time=40
# rst=1 clk=1 S=1 R=1 Q=1 Qbar=0 Time=45
# rst=1 clk=0 S=1 R=1 Q=x Qbar=x Time=50
# rst=1 clk=0 S=0 R=1 Q=x Qbar=x Time=52
# rst=1 clk=1 S=0 R=1 Q=x Qbar=x Time=55
# rst=1 clk=1 S=1 R=0 Q=x Qbar=x Time=59
# rst=1 clk=0 S=1 R=0 Q=1 Qbar=0 Time=60
# rst=1 clk=1 S=1 R=0 Q=1 Qbar=0 Time=65
# rst=1 clk=0 S=1 R=0 Q=1 Qbar=0 Time=70
# rst=1 clk=1 S=1 R=0 Q=1 Qbar=0 Time=75
# rst=1 clk=0 S=1 R=1 Q=1 Qbar=0 Time=80
# rst=1 clk=1 S=1 R=1 Q=1 Qbar=0 Time=85
# rst=1 clk=0 S=1 R=1 Q=x Qbar=x Time=90
# rst=1 clk=1 S=1 R=1 Q=x Qbar=x Time=95
# ** Note: $stop    : srff.v(43)
#    Time: 100 ns  Iteration: 0  Instance: /srff_tb
# Break in Module srff_tb at srff.v line 43
quit -sim
# End time: 16:37:18 on Sep 10,2025, Elapsed time: 0:00:46
# Errors: 0, Warnings: 0
