BEHAVIOURAL  MODEL/SEQUENTIAL CRTS/LATCHES/JK LATCH/transcript
# //  Questa Sim-64
# //  Version 10.7c win64 Aug 18 2018
# //
# //  Copyright 1991-2018 Mentor Graphics Corporation
# //  All Rights Reserved.
# //
# //  QuestaSim and its associated documentation contain trade
# //  secrets and commercial or financial information that are the property of
# //  Mentor Graphics Corporation and are privileged, confidential,
# //  and exempt from disclosure under the Freedom of Information Act,
# //  5 U.S.C. Section 552. Furthermore, this information
# //  is prohibited from disclosure under the Trade Secrets Act,
# //  18 U.S.C. Section 1905.
# //
# do run.do
# QuestaSim-64 vlog 10.7c Compiler 2018.08 Aug 18 2018
# Start time: 16:00:25 on Sep 09,2025
# vlog -reportprogress 300 jkl.v "+acc" 
# -- Compiling module jkl
# -- Compiling module jkl_tb
# 
# Top level modules:
# 	jkl_tb
# End time: 16:00:25 on Sep 09,2025, Elapsed time: 0:00:00
# Errors: 0, Warnings: 0
# vsim jkl_tb 
# Start time: 16:00:25 on Sep 09,2025
# ** Note: (vsim-3813) Design is being optimized due to module recompilation...
# Loading work.jkl_tb(fast)
# Loading work.jkl(fast)
# clk=0 rst=0 j=0 k=1 q=0 qbar=1 Time=0
# clk=1 rst=1 j=1 k=0 q=1 qbar=0 Time=5
# clk=0 rst=1 j=1 k=1 q=1 qbar=0 Time=10
# clk=1 rst=1 j=0 k=1 q=0 qbar=1 Time=15
# clk=0 rst=1 j=1 k=0 q=0 qbar=1 Time=20
# clk=1 rst=1 j=1 k=1 q=1 qbar=0 Time=25
# clk=0 rst=1 j=0 k=1 q=1 qbar=0 Time=30
# clk=1 rst=1 j=1 k=0 q=1 qbar=0 Time=35
# clk=0 rst=1 j=1 k=1 q=1 qbar=0 Time=40
# clk=1 rst=1 j=0 k=1 q=0 qbar=1 Time=45
# clk=0 rst=1 j=1 k=0 q=0 qbar=1 Time=50
# clk=1 rst=1 j=1 k=1 q=1 qbar=0 Time=55
# clk=0 rst=1 j=0 k=1 q=1 qbar=0 Time=60
# clk=1 rst=1 j=1 k=0 q=1 qbar=0 Time=65
# clk=0 rst=1 j=1 k=1 q=1 qbar=0 Time=70
# clk=1 rst=1 j=0 k=1 q=0 qbar=1 Time=75
# clk=0 rst=1 j=1 k=0 q=0 qbar=1 Time=80
# clk=1 rst=1 j=1 k=1 q=1 qbar=0 Time=85
# clk=0 rst=1 j=0 k=1 q=1 qbar=0 Time=90
# clk=1 rst=1 j=1 k=0 q=1 qbar=0 Time=95
# ** Note: $stop    : jkl.v(56)
#    Time: 100 ns  Iteration: 0  Instance: /jkl_tb
# Break in Module jkl_tb at jkl.v line 56
quit -sim
# End time: 16:02:56 on Sep 09,2025, Elapsed time: 0:02:31
# Errors: 0, Warnings: 0
