BEHAVIOURAL  MODEL/SEQUENTIAL CRTS/SHIFT REGISTERS/PISO REGESTER/transcript
# //  Questa Sim-64
# //  Version 10.7c win64 Aug 18 2018
# //
# //  Copyright 1991-2018 Mentor Graphics Corporation
# //  All Rights Reserved.
# //
# //  QuestaSim and its associated documentation contain trade
# //  secrets and commercial or financial information that are the property of
# //  Mentor Graphics Corporation and are privileged, confidential,
# //  and exempt from disclosure under the Freedom of Information Act,
# //  5 U.S.C. Section 552. Furthermore, this information
# //  is prohibited from disclosure under the Trade Secrets Act,
# //  18 U.S.C. Section 1905.
# //
# do run.do
# QuestaSim-64 vlog 10.7c Compiler 2018.08 Aug 18 2018
# Start time: 12:18:41 on Sep 18,2025
# vlog -reportprogress 300 piso.v "+acc" 
# -- Compiling module piso
# -- Compiling module piso_tb
# 
# Top level modules:
# 	piso_tb
# End time: 12:18:42 on Sep 18,2025, Elapsed time: 0:00:01
# Errors: 0, Warnings: 0
# vsim piso_tb 
# Start time: 12:18:42 on Sep 18,2025
# ** Note: (vsim-8009) Loading existing optimized design _opt
# Loading work.piso_tb(fast)
# Loading work.piso(fast)
# clk=1 rst=0 mode=1 p_in=1011 s_out=0 Time=0
# clk=0 rst=1 mode=1 p_in=1011 s_out=0 Time=10
# clk=1 rst=1 mode=1 p_in=1011 s_out=0 Time=20
# clk=1 rst=1 mode=0 p_in=1011 s_out=0 Time=25
# clk=0 rst=1 mode=0 p_in=1011 s_out=0 Time=30
# clk=1 rst=1 mode=0 p_in=1011 s_out=1 Time=40
# clk=0 rst=1 mode=0 p_in=1011 s_out=1 Time=50
# clk=1 rst=1 mode=0 p_in=1011 s_out=0 Time=60
# clk=0 rst=1 mode=0 p_in=1011 s_out=0 Time=70
# clk=1 rst=1 mode=0 p_in=1011 s_out=1 Time=80
# clk=0 rst=1 mode=0 p_in=1011 s_out=1 Time=90
# clk=1 rst=1 mode=0 p_in=1011 s_out=1 Time=100
# clk=0 rst=1 mode=0 p_in=1011 s_out=1 Time=110
# clk=1 rst=1 mode=0 p_in=1011 s_out=0 Time=120
# clk=0 rst=1 mode=0 p_in=1011 s_out=0 Time=130
# clk=1 rst=1 mode=0 p_in=1011 s_out=0 Time=140
# clk=0 rst=1 mode=0 p_in=1011 s_out=0 Time=150
# clk=1 rst=1 mode=0 p_in=1011 s_out=0 Time=160
# clk=0 rst=1 mode=0 p_in=1011 s_out=0 Time=170
# ** Note: $stop    : piso.v(57)
#    Time: 180 ns  Iteration: 0  Instance: /piso_tb
# Break in Module piso_tb at piso.v line 57
# End time: 12:19:05 on Sep 18,2025, Elapsed time: 0:00:23
# Errors: 0, Warnings: 0
